Compiling C:\Users\39gre\OneDrive\ドキュメント\01_千葉工業大学\05_キューブサット\003_PICKIT4\002\009_OBCboard_code\main on 31-8-21 at 15:21
>>> Warning 203 "C:\Users\39gre\OneDrive\ドキュメント\01_千葉工業大学\05_キューブサット\003_PICKIT4\002\009_OBCboard_code\main.c" Line 25(1,1): Condition always TRUE
>>> Warning 203 "C:\Users\39gre\OneDrive\ドキュメント\01_千葉工業大学\05_キューブサット\003_PICKIT4\002\009_OBCboard_code\main.c" Line 71(1,1): Condition always TRUE
>>> Warning 203 "C:\Users\39gre\OneDrive\ドキュメント\01_千葉工業大学\05_キューブサット\003_PICKIT4\002\009_OBCboard_code\main.c" Line 100(1,1): Condition always TRUE
      Memory usage:   ROM=6%      RAM=1% - 2%
      0 Errors,  3 Warnings.
Build Successful.
