CCS PCM C Compiler, Version 5.104, 57077               13-8-21 13:32

               Filename:   C:\Users\39gre\OneDrive\ドキュメント\01_千葉工業大学\05_キューブサット\003_PICKIT4\002\004_RTC_timer1\main.lst

               ROM used:   764 words (5%)
                           Largest free fragment is 2048
               RAM used:   22 (1%) at main() level
                           46 (2%) worst case
               Stack used: 2 locations (0 in main + 2 for interrupts)
               Stack size: 16

*
0000:  MOVLP  00
0001:  GOTO   24F
0002:  NOP
*
0004:  CLRF   03
0005:  MOVLP  00
0006:  MOVLB  00
0007:  MOVF   77,W
0008:  MOVWF  20
0009:  MOVF   78,W
000A:  MOVWF  21
000B:  MOVF   79,W
000C:  MOVWF  22
000D:  MOVF   7A,W
000E:  MOVWF  23
000F:  MOVLB  03
0010:  MOVF   11,W
0011:  MOVLB  00
0012:  MOVWF  24
0013:  MOVLB  03
0014:  MOVF   12,W
0015:  MOVLB  00
0016:  MOVWF  25
0017:  MOVLB  03
0018:  MOVF   13,W
0019:  MOVLB  00
001A:  MOVWF  26
001B:  MOVLB  03
001C:  MOVF   14,W
001D:  MOVLB  00
001E:  MOVWF  27
001F:  BTFSS  0B.5
0020:  GOTO   023
0021:  BTFSC  0B.2
0022:  GOTO   043
0023:  CLRF   05
0024:  MOVLW  91
0025:  MOVWF  04
0026:  BTFSS  00.0
0027:  GOTO   02A
0028:  BTFSC  11.0
0029:  GOTO   045
002A:  MOVF   20,W
002B:  MOVWF  77
002C:  MOVF   21,W
002D:  MOVWF  78
002E:  MOVF   22,W
002F:  MOVWF  79
0030:  MOVF   23,W
0031:  MOVWF  7A
0032:  MOVF   24,W
0033:  MOVLB  03
0034:  MOVWF  11
0035:  MOVLB  00
0036:  MOVF   25,W
0037:  MOVLB  03
0038:  MOVWF  12
0039:  MOVLB  00
003A:  MOVF   26,W
003B:  MOVLB  03
003C:  MOVWF  13
003D:  MOVLB  00
003E:  MOVF   27,W
003F:  MOVLB  03
0040:  MOVWF  14
0041:  RETFIE
0042:  MOVLB  00
0043:  MOVLP  00
0044:  GOTO   097
0045:  MOVLP  00
0046:  GOTO   113
.................... #include <main.h>
.................... #include <16F1789.h>
.................... //////////// Standard Header file for the PIC16F1789 device ////////////////
.................... ///////////////////////////////////////////////////////////////////////////
.................... ////        (C) Copyright 1996, 2020 Custom Computer Services          ////
.................... //// This source code may only be used by licensed users of the CCS C  ////
.................... //// compiler.  This source code may only be distributed to other      ////
.................... //// licensed users of the CCS C compiler.  No other use, reproduction ////
.................... //// or distribution is permitted without written permission.          ////
.................... //// Derivative programs created using this software in object code    ////
.................... //// form are not restricted in any way.                               ////
.................... ///////////////////////////////////////////////////////////////////////////
.................... #device PIC16F1789
0047:  MOVF   0B,W
0048:  BCF    0B.7
0049:  MOVLB  03
004A:  BSF    15.7
004B:  BSF    15.0
004C:  NOP
004D:  NOP
004E:  BTFSC  09.7
004F:  BSF    0B.7
0050:  MOVF   13,W
0051:  ANDLW  7F
0052:  BTFSC  03.2
0053:  GOTO   095
0054:  MOVLB  00
0055:  MOVWF  3D
0056:  MOVLB  03
0057:  MOVF   11,W
0058:  MOVLB  00
0059:  MOVWF  3E
005A:  MOVLB  03
005B:  MOVF   12,W
005C:  MOVLB  00
005D:  MOVWF  3F
005E:  MOVF   3D,W
005F:  BTFSS  11.4
0060:  GOTO   05F
0061:  MOVLB  03
0062:  MOVWF  1A
0063:  MOVLB  00
0064:  MOVF   3E,W
0065:  MOVLB  03
0066:  MOVWF  11
0067:  MOVLB  00
0068:  MOVF   3F,W
0069:  MOVLB  03
006A:  MOVWF  12
006B:  MOVF   0B,W
006C:  BCF    0B.7
006D:  BSF    15.7
006E:  BSF    15.0
006F:  NOP
0070:  NOP
0071:  BTFSC  09.7
0072:  BSF    0B.7
0073:  RLF    13,W
0074:  RLF    14,W
0075:  ANDLW  7F
0076:  BTFSC  03.2
0077:  GOTO   095
0078:  MOVLB  00
0079:  MOVWF  3D
007A:  MOVLB  03
007B:  MOVF   11,W
007C:  MOVLB  00
007D:  MOVWF  3E
007E:  MOVLB  03
007F:  MOVF   12,W
0080:  MOVLB  00
0081:  MOVWF  3F
0082:  MOVF   3D,W
0083:  BTFSS  11.4
0084:  GOTO   083
0085:  MOVLB  03
0086:  MOVWF  1A
0087:  MOVLB  00
0088:  MOVF   3E,W
0089:  MOVLB  03
008A:  MOVWF  11
008B:  MOVLB  00
008C:  MOVF   3F,W
008D:  MOVLB  03
008E:  MOVWF  12
008F:  INCF   11,F
0090:  BTFSC  03.2
0091:  INCF   12,F
0092:  MOVLB  00
0093:  GOTO   047
0094:  MOVLB  03
0095:  MOVLB  00
0096:  RETURN
*
00B5:  DATA 66,36
00B6:  DATA E1,33
00B7:  DATA 20,1F
00B8:  DATA 3E,1F
00B9:  DATA A0,18
00BA:  DATA 8A,06
00BB:  DATA 00,00
00BC:  DATA 66,36
00BD:  DATA E1,33
00BE:  DATA 20,1F
00BF:  DATA 3E,1F
00C0:  DATA 20,18
00C1:  DATA 8A,06
00C2:  DATA 00,00
00C3:  MOVF   0B,W
00C4:  BCF    0B.7
00C5:  MOVLB  03
00C6:  BSF    15.7
00C7:  BSF    15.0
00C8:  NOP
00C9:  NOP
00CA:  BTFSC  09.7
00CB:  BSF    0B.7
00CC:  MOVF   13,W
00CD:  ANDLW  7F
00CE:  BTFSC  03.2
00CF:  GOTO   111
00D0:  MOVLB  00
00D1:  MOVWF  3D
00D2:  MOVLB  03
00D3:  MOVF   11,W
00D4:  MOVLB  00
00D5:  MOVWF  3E
00D6:  MOVLB  03
00D7:  MOVF   12,W
00D8:  MOVLB  00
00D9:  MOVWF  3F
00DA:  MOVF   3D,W
00DB:  BTFSS  11.4
00DC:  GOTO   0DB
00DD:  MOVLB  03
00DE:  MOVWF  1A
00DF:  MOVLB  00
00E0:  MOVF   3E,W
00E1:  MOVLB  03
00E2:  MOVWF  11
00E3:  MOVLB  00
00E4:  MOVF   3F,W
00E5:  MOVLB  03
00E6:  MOVWF  12
00E7:  MOVF   0B,W
00E8:  BCF    0B.7
00E9:  BSF    15.7
00EA:  BSF    15.0
00EB:  NOP
00EC:  NOP
00ED:  BTFSC  09.7
00EE:  BSF    0B.7
00EF:  RLF    13,W
00F0:  RLF    14,W
00F1:  ANDLW  7F
00F2:  BTFSC  03.2
00F3:  GOTO   111
00F4:  MOVLB  00
00F5:  MOVWF  3D
00F6:  MOVLB  03
00F7:  MOVF   11,W
00F8:  MOVLB  00
00F9:  MOVWF  3E
00FA:  MOVLB  03
00FB:  MOVF   12,W
00FC:  MOVLB  00
00FD:  MOVWF  3F
00FE:  MOVF   3D,W
00FF:  BTFSS  11.4
0100:  GOTO   0FF
0101:  MOVLB  03
0102:  MOVWF  1A
0103:  MOVLB  00
0104:  MOVF   3E,W
0105:  MOVLB  03
0106:  MOVWF  11
0107:  MOVLB  00
0108:  MOVF   3F,W
0109:  MOVLB  03
010A:  MOVWF  12
010B:  INCF   11,F
010C:  BTFSC  03.2
010D:  INCF   12,F
010E:  MOVLB  00
010F:  GOTO   0C3
0110:  MOVLB  03
0111:  MOVLB  00
0112:  RETURN
*
0135:  DATA 2A,15
0136:  DATA 2A,15
0137:  DATA 2A,15
0138:  DATA 2A,15
0139:  DATA 2A,15
013A:  DATA 2A,15
013B:  DATA 2A,15
013C:  DATA 2A,15
013D:  DATA 2A,15
013E:  DATA 2A,15
013F:  DATA 2A,15
0140:  DATA 2A,15
0141:  DATA 2A,15
0142:  DATA 2A,15
0143:  DATA 2A,00
0144:  DATA 20,10
0145:  DATA 20,26
0146:  DATA 45,22
0147:  DATA 20,28
0148:  DATA 69,37
0149:  DATA CD,37
014A:  DATA E4,32
014B:  DATA 20,1D
014C:  DATA 20,24
014D:  DATA C9,23
014E:  DATA 48,00
014F:  DATA 20,10
0150:  DATA 20,26
0151:  DATA 45,22
0152:  DATA 20,28
0153:  DATA 69,37
0154:  DATA CD,37
0155:  DATA E4,32
0156:  DATA 20,1D
0157:  DATA 20,26
0158:  DATA CF,2B
0159:  DATA 00,01
015A:  DATA EE,37
015B:  DATA 77,10
015C:  DATA E3,37
015D:  DATA 75,37
015E:  DATA F4,32
015F:  DATA 72,10
0160:  DATA F6,30
0161:  DATA EC,3A
0162:  DATA 65,10
0163:  DATA 3E,1F
0164:  DATA 3E,10
0165:  DATA 25,32
0166:  DATA 8A,06
0167:  DATA 00,00
0168:  MOVF   0B,W
0169:  BCF    0B.7
016A:  MOVLB  03
016B:  BSF    15.7
016C:  BSF    15.0
016D:  NOP
016E:  NOP
016F:  BTFSC  09.7
0170:  BSF    0B.7
0171:  BTFSC  03.0
0172:  GOTO   19C
0173:  MOVF   13,W
0174:  ANDLW  7F
0175:  MOVLB  00
0176:  MOVWF  31
0177:  MOVLB  03
0178:  MOVF   11,W
0179:  MOVLB  00
017A:  MOVWF  32
017B:  MOVLB  03
017C:  MOVF   12,W
017D:  MOVLB  00
017E:  MOVWF  33
017F:  MOVF   31,W
0180:  BTFSS  11.4
0181:  GOTO   180
0182:  MOVLB  03
0183:  MOVWF  1A
0184:  MOVLB  00
0185:  MOVF   32,W
0186:  MOVLB  03
0187:  MOVWF  11
0188:  MOVLB  00
0189:  MOVF   33,W
018A:  MOVLB  03
018B:  MOVWF  12
018C:  MOVF   0B,W
018D:  BCF    0B.7
018E:  BSF    15.7
018F:  BSF    15.0
0190:  NOP
0191:  NOP
0192:  BTFSC  09.7
0193:  BSF    0B.7
0194:  MOVLB  00
0195:  DECFSZ 30,F
0196:  GOTO   198
0197:  GOTO   19A
0198:  MOVLB  03
0199:  GOTO   19C
019A:  GOTO   1BD
019B:  MOVLB  03
019C:  RLF    13,W
019D:  RLF    14,W
019E:  ANDLW  7F
019F:  MOVLB  00
01A0:  MOVWF  31
01A1:  MOVLB  03
01A2:  MOVF   11,W
01A3:  MOVLB  00
01A4:  MOVWF  32
01A5:  MOVLB  03
01A6:  MOVF   12,W
01A7:  MOVLB  00
01A8:  MOVWF  33
01A9:  MOVF   31,W
01AA:  BTFSS  11.4
01AB:  GOTO   1AA
01AC:  MOVLB  03
01AD:  MOVWF  1A
01AE:  MOVLB  00
01AF:  MOVF   32,W
01B0:  MOVLB  03
01B1:  MOVWF  11
01B2:  MOVLB  00
01B3:  MOVF   33,W
01B4:  MOVLB  03
01B5:  MOVWF  12
01B6:  INCF   11,F
01B7:  BTFSC  03.2
01B8:  INCF   12,F
01B9:  BCF    03.0
01BA:  MOVLB  00
01BB:  DECFSZ 30,F
01BC:  GOTO   168
01BD:  MOVLP  00
01BE:  GOTO   2E3 (RETURN)
01BF:  MOVF   39,W
01C0:  CLRF   78
01C1:  SUBWF  38,W
01C2:  BTFSC  03.0
01C3:  GOTO   1C7
01C4:  MOVF   38,W
01C5:  MOVWF  77
01C6:  GOTO   1D3
01C7:  CLRF   77
01C8:  MOVLW  08
01C9:  MOVWF  3A
01CA:  RLF    38,F
01CB:  RLF    77,F
01CC:  MOVF   39,W
01CD:  SUBWF  77,W
01CE:  BTFSC  03.0
01CF:  MOVWF  77
01D0:  RLF    78,F
01D1:  DECFSZ 3A,F
01D2:  GOTO   1CA
01D3:  RETURN
01D4:  MOVLW  20
01D5:  BTFSS  31.4
01D6:  MOVLW  30
01D7:  MOVWF  34
01D8:  MOVF   30,W
01D9:  MOVWF  77
01DA:  BTFSS  30.7
01DB:  GOTO   1E4
01DC:  COMF   77,F
01DD:  INCF   77,F
01DE:  MOVF   77,W
01DF:  MOVWF  30
01E0:  MOVLW  2D
01E1:  MOVWF  34
01E2:  BSF    31.7
01E3:  BSF    31.0
01E4:  MOVF   30,W
01E5:  MOVWF  38
01E6:  MOVLW  64
01E7:  MOVWF  39
01E8:  CALL   1BF
01E9:  MOVF   77,W
01EA:  MOVWF  30
01EB:  MOVLW  30
01EC:  ADDWF  78,W
01ED:  MOVWF  35
01EE:  MOVF   30,W
01EF:  MOVWF  38
01F0:  MOVLW  0A
01F1:  MOVWF  39
01F2:  CALL   1BF
01F3:  MOVLW  30
01F4:  ADDWF  77,W
01F5:  MOVWF  37
01F6:  MOVLW  30
01F7:  ADDWF  78,W
01F8:  MOVWF  36
01F9:  MOVF   34,W
01FA:  MOVWF  77
01FB:  MOVLW  30
01FC:  SUBWF  35,W
01FD:  BTFSC  03.2
01FE:  GOTO   203
01FF:  BSF    31.1
0200:  BTFSC  31.7
0201:  BSF    31.2
0202:  GOTO   217
0203:  MOVF   34,W
0204:  MOVWF  35
0205:  MOVLW  20
0206:  MOVWF  34
0207:  MOVLW  30
0208:  SUBWF  36,W
0209:  BTFSC  03.2
020A:  GOTO   20F
020B:  BSF    31.0
020C:  BTFSC  31.7
020D:  BSF    31.1
020E:  GOTO   217
020F:  BTFSS  03.2
0210:  BSF    31.0
0211:  BTFSS  03.2
0212:  GOTO   217
0213:  MOVF   35,W
0214:  MOVWF  36
0215:  MOVLW  20
0216:  MOVWF  35
0217:  BTFSC  31.2
0218:  GOTO   21E
0219:  BTFSC  31.1
021A:  GOTO   224
021B:  BTFSC  31.0
021C:  GOTO   22A
021D:  GOTO   230
021E:  MOVF   34,W
021F:  BTFSS  11.4
0220:  GOTO   21F
0221:  MOVLB  03
0222:  MOVWF  1A
0223:  MOVLB  00
0224:  MOVF   35,W
0225:  BTFSS  11.4
0226:  GOTO   225
0227:  MOVLB  03
0228:  MOVWF  1A
0229:  MOVLB  00
022A:  MOVF   36,W
022B:  BTFSS  11.4
022C:  GOTO   22B
022D:  MOVLB  03
022E:  MOVWF  1A
022F:  MOVLB  00
0230:  MOVF   37,W
0231:  BTFSS  11.4
0232:  GOTO   231
0233:  MOVLB  03
0234:  MOVWF  1A
0235:  MOVLP  00
0236:  MOVLB  00
0237:  GOTO   2E8 (RETURN)
.................... 
.................... #list
.................... 
.................... #device ADC=12
.................... #use delay(oscillator=16MHz)
0238:  MOVLW  20
0239:  MOVWF  05
023A:  MOVLW  11
023B:  MOVWF  04
023C:  MOVF   00,W
023D:  BTFSC  03.2
023E:  GOTO   24D
023F:  MOVLW  05
0240:  MOVWF  78
0241:  CLRF   77
0242:  DECFSZ 77,F
0243:  GOTO   242
0244:  DECFSZ 78,F
0245:  GOTO   241
0246:  MOVLW  2E
0247:  MOVWF  77
0248:  DECFSZ 77,F
0249:  GOTO   248
024A:  GOTO   24B
024B:  DECFSZ 00,F
024C:  GOTO   23F
024D:  MOVLP  00
024E:  GOTO   2F9 (RETURN)
.................... #use rs232(baud=9600,parity=N,xmit=PIN_C6,rcv=PIN_C7,bits=8,stream=PORT1)
.................... 
.................... 
.................... #fuses HS,NOWDT,NOPROTECT,PUT,BROWNOUT,NOLVP
.................... #use rs232(UART1,baud = 9600)
.................... 
.................... //global val definition 
.................... static int counter1,counter2,number;
.................... 
.................... #int_timer0
.................... void intval()
.................... {
....................    
....................    static int flag = 0;
....................    counter1++;
*
0097:  INCF   29,F
....................    if(counter1 > 61)
0098:  MOVF   29,W
0099:  SUBLW  3D
009A:  BTFSC  03.0
009B:  GOTO   0B2
....................    {
....................       counter1 = 0;
009C:  CLRF   29
....................       if(flag == 0)
009D:  MOVF   2C,F
009E:  BTFSS  03.2
009F:  GOTO   0AA
....................       {
....................          flag = 1;
00A0:  MOVLW  01
00A1:  MOVWF  2C
....................          printf("flag >>> 1\n\r");
00A2:  MOVLW  B5
00A3:  MOVLB  03
00A4:  MOVWF  11
00A5:  MOVLW  00
00A6:  MOVWF  12
00A7:  MOVLB  00
00A8:  CALL   047
....................       }else{
00A9:  GOTO   0B2
....................          flag = 0;
00AA:  CLRF   2C
....................          printf("flag >>> 0\n\r");
00AB:  MOVLW  BC
00AC:  MOVLB  03
00AD:  MOVWF  11
00AE:  MOVLW  00
00AF:  MOVWF  12
00B0:  MOVLB  00
00B1:  CALL   047
....................       }
....................    }
.................... }
.................... 
00B2:  BCF    0B.2
00B3:  MOVLP  00
00B4:  GOTO   02A
.................... #int_timer1
.................... void isr1()
.................... {
....................    set_timer1(0x8000);     //timer1's interval is 1[sec]
*
0113:  CLRF   16
0114:  MOVLW  80
0115:  MOVWF  17
0116:  CLRF   16
0117:  NOP
....................    //setup_timer_1(T1_EXTERNAL_SYNC | T1_DIV_BY_8);
....................    counter2++;
0118:  INCF   2A,F
....................    if(counter2 > 10)
0119:  MOVF   2A,W
011A:  SUBLW  0A
011B:  BTFSC  03.0
011C:  GOTO   132
....................    {
....................       counter2 = 0;
011D:  CLRF   2A
....................       number++;
011E:  INCF   2B,F
....................       puts("*****************************");
011F:  MOVLW  35
0120:  MOVLB  03
0121:  MOVWF  11
0122:  MOVLW  01
0123:  MOVWF  12
0124:  MOVLB  00
0125:  CALL   0C3
0126:  MOVLW  0D
0127:  BTFSS  11.4
0128:  GOTO   127
0129:  MOVLB  03
012A:  MOVWF  1A
012B:  MOVLW  0A
012C:  MOVLB  00
012D:  BTFSS  11.4
012E:  GOTO   12D
012F:  MOVLB  03
0130:  MOVWF  1A
0131:  MOVLB  00
....................    }
0132:  BCF    11.0
0133:  MOVLP  00
0134:  GOTO   02A
.................... }
.................... 
.................... void main()
*
024F:  MOVLB  03
0250:  BSF    1F.3
0251:  MOVLW  A0
0252:  MOVWF  1B
0253:  MOVLW  01
0254:  MOVWF  1C
0255:  MOVLW  A6
0256:  MOVWF  1E
0257:  MOVLW  90
0258:  MOVWF  1D
0259:  BSF    1F.3
025A:  MOVLW  A0
025B:  MOVWF  1B
025C:  MOVLW  01
025D:  MOVWF  1C
025E:  MOVLW  A6
025F:  MOVWF  1E
0260:  MOVLW  90
0261:  MOVWF  1D
0262:  MOVLB  00
0263:  CLRF   2E
0264:  CLRF   2D
0265:  MOVLB  03
0266:  CLRF   0C
0267:  CLRF   0D
0268:  CLRF   0E
0269:  CLRF   0F
026A:  CLRF   10
026B:  MOVLB  02
026C:  CLRF   12
026D:  CLRF   11
026E:  MOVLB  00
026F:  CLRF   29
0270:  CLRF   2A
0271:  CLRF   2B
0272:  CLRF   2C
.................... {  
....................    counter1 = 0;
0273:  CLRF   29
....................    counter2 = 0;
0274:  CLRF   2A
....................    number  = 0;
0275:  CLRF   2B
....................    char cmd;
....................    set_tris_b(0);
0276:  MOVLW  00
0277:  MOVLB  01
0278:  MOVWF  0D
....................    
....................    setup_timer_0(RTCC_INTERNAL | RTCC_DIV_256);
0279:  MOVF   15,W
027A:  ANDLW  C0
027B:  IORLW  07
027C:  MOVWF  15
....................    set_timer0(0);
027D:  MOVLB  00
027E:  CLRF   15
....................    
....................    //setup_timer_1(T1_EXTERNAL_SYNC | T1_DIV_BY_4);
....................    setup_timer_1(T1_EXTERNAL | T1_DIV_BY_4);
027F:  MOVLW  A7
0280:  MOVWF  18
0281:  CLRF   19
....................    //setup_timer_1(T1_INTERNAL | T1_DIV_BY_4);
....................    set_timer1(0);
0282:  CLRF   16
0283:  CLRF   17
0284:  CLRF   16
0285:  NOP
....................    
....................    enable_interrupts(INT_TIMER0);
0286:  BSF    0B.5
....................    enable_interrupts(INT_TIMER1);
0287:  MOVLB  01
0288:  BSF    11.0
....................    enable_interrupts(GLOBAL);
0289:  MOVLW  C0
028A:  IORWF  0B,F
....................    
....................    while(1)
....................    {
....................       cmd = getc();
028B:  MOVLB  00
028C:  BTFSS  11.5
028D:  GOTO   28C
028E:  MOVLB  03
028F:  MOVF   19,W
0290:  MOVLB  00
0291:  MOVWF  2F
....................       if((cmd >= '0') && (cmd <= '9'))
0292:  MOVF   2F,W
0293:  SUBLW  2F
0294:  BTFSC  03.0
0295:  GOTO   2B8
0296:  MOVF   2F,W
0297:  SUBLW  39
0298:  BTFSS  03.0
0299:  GOTO   2B8
....................       {
....................          output_high(PIN_A1);
029A:  MOVLB  01
029B:  BCF    0C.1
029C:  MOVLB  02
029D:  BSF    0C.1
....................          puts("   LED PinMode : HIGH");
029E:  MOVLW  44
029F:  MOVLB  03
02A0:  MOVWF  11
02A1:  MOVLW  01
02A2:  MOVWF  12
02A3:  MOVLB  00
02A4:  CLRF   28
02A5:  BTFSC  0B.7
02A6:  BSF    28.7
02A7:  BCF    0B.7
02A8:  CALL   0C3
02A9:  BTFSC  28.7
02AA:  BSF    0B.7
02AB:  MOVLW  0D
02AC:  BTFSS  11.4
02AD:  GOTO   2AC
02AE:  MOVLB  03
02AF:  MOVWF  1A
02B0:  MOVLW  0A
02B1:  MOVLB  00
02B2:  BTFSS  11.4
02B3:  GOTO   2B2
02B4:  MOVLB  03
02B5:  MOVWF  1A
....................       }else{
02B6:  GOTO   2D4
02B7:  MOVLB  00
....................          output_low(PIN_A1);
02B8:  MOVLB  01
02B9:  BCF    0C.1
02BA:  MOVLB  02
02BB:  BCF    0C.1
....................          puts("   LED PinMode : LOW");
02BC:  MOVLW  4F
02BD:  MOVLB  03
02BE:  MOVWF  11
02BF:  MOVLW  01
02C0:  MOVWF  12
02C1:  MOVLB  00
02C2:  CLRF   28
02C3:  BTFSC  0B.7
02C4:  BSF    28.7
02C5:  BCF    0B.7
02C6:  CALL   0C3
02C7:  BTFSC  28.7
02C8:  BSF    0B.7
02C9:  MOVLW  0D
02CA:  BTFSS  11.4
02CB:  GOTO   2CA
02CC:  MOVLB  03
02CD:  MOVWF  1A
02CE:  MOVLW  0A
02CF:  MOVLB  00
02D0:  BTFSS  11.4
02D1:  GOTO   2D0
02D2:  MOVLB  03
02D3:  MOVWF  1A
....................       }
....................       if(cmd == 'w')
02D4:  MOVLB  00
02D5:  MOVF   2F,W
02D6:  SUBLW  77
02D7:  BTFSS  03.2
02D8:  GOTO   2F4
....................       {
....................          printf("now counter value >>> %d\n\r",number);
02D9:  MOVLW  5A
02DA:  MOVLB  03
02DB:  MOVWF  11
02DC:  MOVLW  01
02DD:  MOVWF  12
02DE:  BCF    03.0
02DF:  MOVLW  16
02E0:  MOVLB  00
02E1:  MOVWF  30
02E2:  GOTO   168
02E3:  MOVF   2B,W
02E4:  MOVWF  30
02E5:  MOVLW  18
02E6:  MOVWF  31
02E7:  GOTO   1D4
02E8:  MOVLW  0A
02E9:  BTFSS  11.4
02EA:  GOTO   2E9
02EB:  MOVLB  03
02EC:  MOVWF  1A
02ED:  MOVLW  0D
02EE:  MOVLB  00
02EF:  BTFSS  11.4
02F0:  GOTO   2EF
02F1:  MOVLB  03
02F2:  MOVWF  1A
02F3:  MOVLB  00
....................       }
....................       delay_ms(1000);
02F4:  MOVLW  04
02F5:  MOVWF  30
02F6:  MOVLW  FA
02F7:  MOVWF  31
02F8:  GOTO   238
02F9:  DECFSZ 30,F
02FA:  GOTO   2F6
02FB:  GOTO   28C
....................    }
.................... }
.................... 
02FC:  SLEEP

Configuration Fuses:
   Word  1: 3FC2   HS NOWDT PUT MCLR NOPROTECT NOCPD BROWNOUT NOCLKOUT IESO FCMEN
   Word  2: 1EFF   NOWRT NOVCAP PLL_SW STVREN BORV19 NOLPBOR NODEBUG NOLVP
