000     @SCRATCH
001     @SCRATCH
001     _RETURN_
002     @SCRATCH
003     @SCRATCH
004     @INTERRUPT_AREA
005     @INTERRUPT_AREA
006     @INTERRUPT_AREA
007     @INTERRUPT_AREA
008     @INTERRUPT_AREA
009     @INTERRUPT_AREA
00A     @INTERRUPT_AREA
00B     @INTERRUPT_AREA
00C     @INTERRUPT_AREA
00D     @INTERRUPT_AREA
00E     @INTERRUPT_AREA
00F     @INTERRUPT_AREA
010     @INTERRUPT_AREA
011     @INTERRUPT_AREA
012     @INTERRUPT_AREA
013     @INTERRUPT_AREA
014     @INTERRUPT_AREA
015     @INTERRUPT_AREA
016     @INTERRUPT_AREA
017     @INTERRUPT_AREA
018     @INTERRUPT_AREA
019     @INTERRUPT_AREA
01A     @INTERRUPT_AREA
01B     @INTERRUPT_AREA
01C     rs232_errors
01D-01E strtok.save
01F-022 _Randseed
023-032 in_bffr_main
033     next_in
034-035 @sprintf_string
036     @SPI_XFER_1.P1
036     MAIN.cmd
037     @SPI_XFER_1.P1
037-03A MAIN.image_size
038     @SPI_XFER_1.P1
03B-041 MAIN.write_flash_data
042     MAIN.photoCoupler_state
043     receive_cmd.i
043-044 read_SCF_data_test.i
043-046 read_image_data_from_SCF.i
043-046 read_image_data_from_SMF.i
043-046 trans_SMFdata_to_SCF.image_size
043-046 wait_image_data.data_size
043     power_switch_off.decide
043-044 read_SMF_data_test.i
043-044 write_SMF_data_test.write_flash_data
043-044 write_SCF_data_test.write_flash_data
044     receive_cmd.i
045     SerialDataReceive.num
045-046 write_SCF_data_test.i
045-046 write_SMF_data_test.i
045     read_SMF_data_test.a
045     read_SCF_data_test.@SCRATCH1
045     receive_cmd.@SCRATCH1
046     @PRINTF_X_115200_31766_31767.P1
046     @PRINTF_D_115200_31766_31767.P2
046     SerialDataReceive.@SCRATCH1
046     receive_cmd.@SCRATCH2
047-04A trans_SMFdata_to_SCF.i
047     @PRINTF_D_115200_31766_31767.P1
047-04A read_image_data_from_SMF.data_size
047-04A read_image_data_from_SCF.data_size
047-04A wait_image_data.i
047     @PRINTF_X_115200_31766_31767.P1
047     write_SMF_data_test.@SCRATCH1
047     write_SCF_data_test.@SCRATCH1
047     SerialDataReceive.@SCRATCH2
048     SerialDataReceive.@SCRATCH3
048     @PRINTF_D_115200_31766_31767.@SCRATCH1
049     SerialDataReceive.@SCRATCH4
049     @PRINTF_D_115200_31766_31767.@SCRATCH2
04A     @PRINTF_D_115200_31766_31767.@SCRATCH3
04B     read_image_data_from_SCF.a
04B     read_image_data_from_SMF.a
04B-04E wait_image_data.j
04B-04E trans_SMFdata_to_SCF.data_size
04B     @PRINTF_D_115200_31766_31767.@SCRATCH4
04C-04F read_image_data_from_SMF.image_size
04C-04F read_image_data_from_SCF.image_size
04F-052 SUBSECTOR_4KB_ERASE_SCF.sector_address
04F-052 wait_image_data.image_size
04F     trans_SMFdata_to_SCF.@SCRATCH1
050     read_image_data_from_SMF.@SCRATCH1
050     read_image_data_from_SCF.@SCRATCH1
050     trans_SMFdata_to_SCF.@SCRATCH2
051     read_image_data_from_SMF.@SCRATCH2
051     read_image_data_from_SCF.@SCRATCH2
051     trans_SMFdata_to_SCF.@SCRATCH3
052     read_image_data_from_SMF.@SCRATCH3
052     read_image_data_from_SCF.@SCRATCH3
052     trans_SMFdata_to_SCF.@SCRATCH4
053-056 wait_image_data.size_quotient
053-056 SUBSECTOR_4KB_ERASE_SCF.adsress
053-056 TRANSFER_DATA_NBYTE_SMFtoSCF.FROM_ADRESS
053     read_image_data_from_SMF.@SCRATCH4
053     read_image_data_from_SCF.@SCRATCH4
053     trans_SMFdata_to_SCF.@SCRATCH5
054-057 READ_DATA_BYTE_SCF.address
054     read_image_data_from_SMF.@SCRATCH5
054     read_image_data_from_SCF.@SCRATCH5
054     trans_SMFdata_to_SCF.@SCRATCH6
055     read_image_data_from_SMF.@SCRATCH6
055     read_image_data_from_SCF.@SCRATCH6
055     trans_SMFdata_to_SCF.@SCRATCH7
056     read_image_data_from_SMF.@SCRATCH7
056     read_image_data_from_SCF.@SCRATCH7
056     trans_SMFdata_to_SCF.@SCRATCH8
057-05A wait_image_data.size_remainder
057-05A TRANSFER_DATA_NBYTE_SMFtoSCF.TO_ADRESS
057     SUBSECTOR_4KB_ERASE_SCF.@SCRATCH1
057     read_image_data_from_SMF.@SCRATCH8
057     read_image_data_from_SCF.@SCRATCH8
057     trans_SMFdata_to_SCF.@SCRATCH9
058-05B READ_DATA_BYTE_SCF.adsress
058     SUBSECTOR_4KB_ERASE_SCF.@SCRATCH2
058     read_image_data_from_SMF.@SCRATCH9
058     read_image_data_from_SCF.@SCRATCH9
058     trans_SMFdata_to_SCF.@SCRATCH10
059     SUBSECTOR_4KB_ERASE_SCF.@SCRATCH3
059     read_image_data_from_SMF.@SCRATCH10
059     read_image_data_from_SCF.@SCRATCH10
059     trans_SMFdata_to_SCF.@SCRATCH11
05A     SUBSECTOR_4KB_ERASE_SCF.@SCRATCH4
05A     read_image_data_from_SMF.@SCRATCH11
05A     read_image_data_from_SCF.@SCRATCH11
05B-05E TRANSFER_DATA_NBYTE_SMFtoSCF.data_byte
05B-05E wait_image_data.write_adrs
05B     SUBSECTOR_4KB_ERASE_SCF.@SCRATCH5
05C     READ_DATA_BYTE_SCF.data
05D     READ_DATA_BYTE_SCF.@SCRATCH1
05E     READ_DATA_BYTE_SCF.@SCRATCH2
05F-15E wait_image_data.image_data
05F-062 TRANSFER_DATA_NBYTE_SMFtoSCF.i
05F     READ_DATA_BYTE_SCF.@SCRATCH3
060     READ_DATA_BYTE_SCF.@SCRATCH4
061     READ_DATA_BYTE_SCF.@SCRATCH5
063-066 READ_DATA_BYTE_SMF.address
063     TRANSFER_DATA_NBYTE_SMFtoSCF.@SCRATCH1
064-067 WRITE_DATA_BYTE_SCF.page_address
067-06A READ_DATA_BYTE_SMF.adsress
068     WRITE_DATA_BYTE_SCF.data
069-06C WRITE_DATA_BYTE_SCF.adsress
06B     READ_DATA_BYTE_SMF.data
06C     READ_DATA_BYTE_SMF.@SCRATCH1
06D     @SPI_XFER_2.P1
06D     WRITE_DATA_BYTE_SCF.@SCRATCH1
06D     READ_DATA_BYTE_SMF.@SCRATCH2
06E     @SPI_XFER_2.P1
06E     WRITE_DATA_BYTE_SCF.@SCRATCH2
06E     READ_DATA_BYTE_SMF.@SCRATCH3
06F     @SPI_XFER_2.P1
06F     WRITE_DATA_BYTE_SCF.@SCRATCH3
06F     READ_DATA_BYTE_SMF.@SCRATCH4
070     @SPI_XFER_2.@SCRATCH1
070     WRITE_DATA_BYTE_SCF.@SCRATCH4
070     READ_DATA_BYTE_SMF.@SCRATCH5
071     @SPI_XFER_2.@SCRATCH2
071     WRITE_DATA_BYTE_SCF.@SCRATCH5
15F     @PUTCHAR_1_.P1
15F-162 @PRINTF_L32D_115200_31766_31767.P2
15F     @PSTRINGCN_115200_31766_31767.P3
15F     wait_image_data.@SCRATCH1
160-163 WRITE_DATA_BYTE_SMF.page_address
160     wait_image_data.@SCRATCH2
160     @PSTRINGCN_115200_31766_31767.@SCRATCH1
161     wait_image_data.@SCRATCH3
161     @PSTRINGCN_115200_31766_31767.@SCRATCH2
162     wait_image_data.@SCRATCH4
162     @PSTRINGCN_115200_31766_31767.@SCRATCH3
163     erace_SMF_data.data_size
163     @GETCH_1_.@SCRATCH1
163     wait_image_data.@SCRATCH5
163     @PRINTF_L32D_115200_31766_31767.@SCRATCH1
164     WRITE_DATA_BYTE_SMF.data
164     erace_SMF_data.sct
164     wait_image_data.@SCRATCH6
164     @PRINTF_L32D_115200_31766_31767.@SCRATCH2
165-168 WRITE_DATA_BYTE_SMF.adsress
165     erace_SMF_data.sct_rmd
165     wait_image_data.@SCRATCH7
165     @PRINTF_L32D_115200_31766_31767.@SCRATCH3
166-169 erace_SMF_data.erase_num
166     wait_image_data.@SCRATCH8
166     @PRINTF_L32D_115200_31766_31767.@SCRATCH4
167     wait_image_data.@SCRATCH9
167     @PRINTF_L32D_115200_31766_31767.@SCRATCH5
168     wait_image_data.@SCRATCH10
168     @PRINTF_L32D_115200_31766_31767.@SCRATCH6
169     WRITE_DATA_BYTE_SMF.@SCRATCH1
169     wait_image_data.@SCRATCH11
169     @PRINTF_L32D_115200_31766_31767.@SCRATCH7
16A-16D erace_SMF_data.i
16A     WRITE_DATA_BYTE_SMF.@SCRATCH2
16A     @PRINTF_L32D_115200_31766_31767.@SCRATCH8
16B-16E @DIV3232.P1
16B     WRITE_DATA_BYTE_SMF.@SCRATCH3
16C     WRITE_DATA_BYTE_SMF.@SCRATCH4
16D     WRITE_DATA_BYTE_SMF.@SCRATCH5
16E-171 erace_SMF_data.sctr_adrs
16F-172 @DIV3232.P1
172-175 SUBSECTOR_4KB_ERASE_SMF.sector_address
172     erace_SMF_data.@SCRATCH1
172     @PSTRINGC_115200_31766_31767.@SCRATCH1
173     @PSTRINGC_115200_31766_31767.@SCRATCH2
173     @DIV3232.@SCRATCH1
174     @PSTRINGC_115200_31766_31767.@SCRATCH3
174     @DIV3232.@SCRATCH2
175     @DIV3232.@SCRATCH3
176-179 SUBSECTOR_4KB_ERASE_SMF.adsress
176     @DIV3232.@SCRATCH4
177     @DIV3232.@SCRATCH5
17A     @SPI_XFER_3.P1
17A     SUBSECTOR_4KB_ERASE_SMF.@SCRATCH1
17B     @delay_ms1.P1
17B     @SPI_XFER_3.P2
17B     SUBSECTOR_4KB_ERASE_SMF.@SCRATCH2
17C     @SPI_XFER_3.P1
17C     SUBSECTOR_4KB_ERASE_SMF.@SCRATCH3
17D     @SPI_XFER_3.@SCRATCH1
17D     SUBSECTOR_4KB_ERASE_SMF.@SCRATCH4
17E     @SPI_XFER_3.@SCRATCH2
17E     SUBSECTOR_4KB_ERASE_SMF.@SCRATCH5
180     serial_isr.@SCRATCH1
181     serial_isr.@SCRATCH2
182     @DIV88.P1
182     serial_isr.@SCRATCH3
183     @DIV88.P1
183     serial_isr.@SCRATCH4
184     @DIV88.@SCRATCH1
EEF.0   MDBIT
EEF.3   MDOUT
F08     CCP_7
F08     CCP_7_LOW
F09     CCP_7_HIGH
F0B     CCP_6_LOW
F0B     CCP_6
F0C     CCP_6_HIGH
F0E     CCP_5
F0E     CCP_5_LOW
F0F     CCP_5_HIGH
F11     CCP_4_LOW
F11     CCP_4
F12     CCP_4_HIGH
F21     DSGPR3
F22     DSGPR2
F23     DSGPR1
F24     DSGPR0
F41     CCP_10_LOW
F41     CCP_10
F42     CCP_10_HIGH
F44     CCP_9
F44     CCP_9_LOW
F45     CCP_9_HIGH
F47     CCP_8_LOW
F47     CCP_8
F48     CCP_8_HIGH
F4A     CCP_3_LOW
F4A     CCP_3
F4B     CCP_3_HIGH
F4F     CCP_2
F4F     CCP_2_LOW
F50     CCP_2_HIGH
F83     PSP_DATA
FBA     CCP_1_LOW
FBA     CCP_1
FBB     CCP_1_HIGH
FC4.0   C1OUT
FC4.1   C2OUT
FC4.2   C3OUT
FE1-FE2 @WRITE_PACKED_MEMORY.P1
FE1-FE2 @READ_PACKED_MEMORY.P2
FE9-FEA @READ_PACKED_MEMORY.P1
FE9-FEA @READ_PROGRAM_MEMORY.P2
FE9-FEA @WRITE_PROGRAM_MEMORY.P3
FE9-FEA @WRITE_PACKED_MEMORY.P4
FF6-FF8 @READ_PROGRAM_MEMORY.P1
FF6-FF8 @WRITE_PROGRAM_MEMORY.P2

ROM Allocation:
0000BE  @GETCH_BIU_3
0000D8  @DIV88
000104  serial_isr
000144  @const1366.call
000180  @const1371.call
0001BE  @const1377.call
0001FA  @const1378.call
000238  @const1379.call
000272  @const1387.call
00029C  @const1389.call
0002A4  @const1390.call
0002BE  @const1391.call
0002D2  @const1399.call
0002E4  @const1401.call
0002EC  @const1403.call
0002FC  @const1404.call
00030C  @const1406.call
00034C  @const1407.call
00038A  @const1416.call
0003C6  @const1417.call
000402  @const1418.call
00043E  @const1419.call
00047A  @const1420.call
0004C0  @const1421.call
000506  @const1422.call
00054C  @const1423.call
000592  @const1425.call
0005D0  @const1427.call
000612  @const1430.call
000656  @const1431.call
00069E  @const1433.call
0006DC  @const1435.call
00071E  @const1437.call
000768  @const1439.call
0007B4  @const1440.call
0007F0  @const1441.call
00082E  @const1442.call
00086A  @const1443.call
0008A8  @const1447.call
0008F6  @const1448.call
000946  @const1450.call
000980  @const1451.call
00099A  @const1452.call
0009D6  @const1453.call
000A20  @const1455.call
000A30  @const1456.call
000A4A  @const1461.call
000A5C  @const1462.call
000A72  @const1464.call
000A8C  @const1468.call
000AAA  @const1476.call
000AE8  @const1477.call
000B04  @const1478.call
000B1E  @PSTRINGC_115200_31766_31767
000B48  @PSTRINGCN_115200_31766_31767
000B7A  @DIV3232
000C0E  @PRINTF_L32D_115200_31766_31767
000D1C  @SPI_XFER_3
000D58  WRITE_ENABLE_SMF
000D74  @delay_ms1
000D9E  SUBSECTOR_4KB_ERASE_SMF
000E4A  erace_SMF_data
000F08  WRITE_DATA_BYTE_SMF
000F9C  @PUTCHAR_1_
000FE2  @GETCH_1_
00102E  wait_image_data
0013BA  READ_DATA_BYTE_SMF
001448  @PUTCHARI_BIU_2
001450  read_image_data_from_SMF
001596  @SPI_XFER_2
0015CE  READ_DATA_BYTE_SCF
001644  read_image_data_from_SCF
001774  SMF_MultiPlexer_switch_MIS_ON
00179C  SMF_MultiPlexer_switch_OBC_ON
0017C4  SCF_MultiPlexer_switch_COM_ON
0017EC  SCF_MultiPlexer_switch_OBC_ON
001814  write_SMF_data_test
0018A6  read_SMF_data_test
0018F6  WRITE_ENABLE_SCF
00190E  WRITE_DATA_BYTE_SCF
00197E  write_SCF_data_test
001A0A  read_SCF_data_test
001A6E  erace_SMF_data_test
001AB2  SUBSECTOR_4KB_ERASE_SCF
001B36  erace_SCF_data_test
001B72  TRANSFER_DATA_NBYTE_SMFtoSCF
001BFA  trans_SMFdata_to_SCF
001D1E  power_switch_on
001D46  power_switch_off
001DB2  SerialDataReceive
001DEA  @PRINTF_D_115200_31766_31767
001EC2  @PRINTF_X_115200_31766_31767
001F06  receive_cmd
001FBE  MAIN
001FBE  @cinit1
00206A  @cinit2
0135  StrtoulGO
0135  StrtolGO

Project Directory:
    C:\Users\39gre\OneDrive\ドキュメント\01_千葉工業大学\05_キューブサット\003_PICKIT4\002\100_BBM_ver1.0(コンフィギュレーション名)用ソースコードフォルダ\002_023+COMからのcmd受信モード追加\

Project Files:
    main.c                                                  [30-9-21 19:50  CRC=72C28151]
    main.h                                                  [29-9-21 19:51  CRC=BEE5D4E9]
    ..\..\..\..\..\..\..\..\..\..\Program Files (x86)\PICC\Devices\18F67J94.h [13-5-21 13:54  CRC=CB5C8DE4]
    ..\..\..\..\..\..\..\..\..\..\Program Files (x86)\PICC\Drivers\stdlib.h [30-6-20 14:21  CRC=452E14BB]
    ..\..\..\..\..\..\..\..\..\..\Program Files (x86)\PICC\Drivers\stddef.h [30-1-19 12:26  CRC=897CEC6C]
    ..\..\..\..\..\..\..\..\..\..\Program Files (x86)\PICC\Drivers\string.h [06-4-20 08:43  CRC=B1605627]
    ..\..\..\..\..\..\..\..\..\..\Program Files (x86)\PICC\Drivers\ctype.h [03-1-08 15:55  CRC=2D1F019F]
    flash_ memory_ MT25QL01GBBB_OF.c                        [28-9-21 17:26  CRC=EA84D16E]

Source signature=7F38DFE7
Program memory checksum=0000
Hex file CRC=B388

Units:
    C:\Users\39gre\OneDrive\ドキュメント\01_千葉工業大学\05_キューブサット\003_PICKIT4\002\100_BBM_ver1.0(コンフィギュレーション名)用ソースコードフォルダ\002_023+COMからのcmd受信モード追加\main (main)

Compiler Settings:
    Processor:      PIC18F67J94
    Pointer Size:   16
    ADC Range:      0-255
    Opt Level:      9
    Short,Int,Long: UNSIGNED: 1,8,16
    Float,Double:   32,32
    Compile Mode:   CCS5

Output Files:
    XREF file:   main.xsym
    Errors:      main.err
    Ext Symbols: main.esym
    INHX32:      main.hex
    Symbols:     main.sym
    List:        main.lst
    Debug/COFF:  main.cof
    Project:     main.ccspjt
    Call Tree:   main.tre
    Statistics:  main.STA
