Compiling C:\Users\39gre\OneDrive\ドキュメント\01_千葉工業大学\05_キューブサット\003_PICKIT4\002\main on 11-8-21 at 14:25
>>> Warning 203 "C:\Users\39gre\OneDrive\ドキュメント\01_千葉工業大学\05_キューブサット\003_PICKIT4\002\main.c" Line 15(1,1): Condition always TRUE
      Memory usage:   ROM=1%      RAM=0% - 1%
      0 Errors,  1 Warnings.
Build Successful.
