CCS PCM C Compiler, Version 5.104, 57077               11-8-21 14:25

               Filename:   C:\Users\39gre\OneDrive\ドキュメント\01_千葉工業大学\05_キューブサット\003_PICKIT4\002\main.lst

               ROM used:   225 words (1%)
                           Largest free fragment is 2048
               RAM used:   9 (0%) at main() level
                           24 (1%) worst case
               Stack used: 0 locations
               Stack size: 16

*
0000:  MOVLP  00
0001:  GOTO   080
0002:  NOP
.................... #include <main.h>
.................... #include <16F1789.h>
.................... //////////// Standard Header file for the PIC16F1789 device ////////////////
.................... ///////////////////////////////////////////////////////////////////////////
.................... ////        (C) Copyright 1996, 2020 Custom Computer Services          ////
.................... //// This source code may only be used by licensed users of the CCS C  ////
.................... //// compiler.  This source code may only be distributed to other      ////
.................... //// licensed users of the CCS C compiler.  No other use, reproduction ////
.................... //// or distribution is permitted without written permission.          ////
.................... //// Derivative programs created using this software in object code    ////
.................... //// form are not restricted in any way.                               ////
.................... ///////////////////////////////////////////////////////////////////////////
.................... #device PIC16F1789
0003:  DATA 20,10
0004:  DATA 20,26
0005:  DATA 45,22
0006:  DATA 20,28
0007:  DATA 69,37
0008:  DATA CD,37
0009:  DATA E4,32
000A:  DATA 20,1D
000B:  DATA 20,24
000C:  DATA C9,23
000D:  DATA 48,00
000E:  DATA 20,10
000F:  DATA 20,26
0010:  DATA 45,22
0011:  DATA 20,28
0012:  DATA 69,37
0013:  DATA CD,37
0014:  DATA E4,32
0015:  DATA 20,1D
0016:  DATA 20,26
0017:  DATA CF,2B
0018:  DATA 00,00
0019:  MOVF   0B,W
001A:  BCF    0B.7
001B:  MOVLB  03
001C:  BSF    15.7
001D:  BSF    15.0
001E:  NOP
001F:  NOP
0020:  BTFSC  09.7
0021:  BSF    0B.7
0022:  MOVF   13,W
0023:  ANDLW  7F
0024:  BTFSC  03.2
0025:  GOTO   067
0026:  MOVLB  00
0027:  MOVWF  25
0028:  MOVLB  03
0029:  MOVF   11,W
002A:  MOVLB  00
002B:  MOVWF  26
002C:  MOVLB  03
002D:  MOVF   12,W
002E:  MOVLB  00
002F:  MOVWF  27
0030:  MOVF   25,W
0031:  BTFSS  11.4
0032:  GOTO   031
0033:  MOVLB  03
0034:  MOVWF  1A
0035:  MOVLB  00
0036:  MOVF   26,W
0037:  MOVLB  03
0038:  MOVWF  11
0039:  MOVLB  00
003A:  MOVF   27,W
003B:  MOVLB  03
003C:  MOVWF  12
003D:  MOVF   0B,W
003E:  BCF    0B.7
003F:  BSF    15.7
0040:  BSF    15.0
0041:  NOP
0042:  NOP
0043:  BTFSC  09.7
0044:  BSF    0B.7
0045:  RLF    13,W
0046:  RLF    14,W
0047:  ANDLW  7F
0048:  BTFSC  03.2
0049:  GOTO   067
004A:  MOVLB  00
004B:  MOVWF  25
004C:  MOVLB  03
004D:  MOVF   11,W
004E:  MOVLB  00
004F:  MOVWF  26
0050:  MOVLB  03
0051:  MOVF   12,W
0052:  MOVLB  00
0053:  MOVWF  27
0054:  MOVF   25,W
0055:  BTFSS  11.4
0056:  GOTO   055
0057:  MOVLB  03
0058:  MOVWF  1A
0059:  MOVLB  00
005A:  MOVF   26,W
005B:  MOVLB  03
005C:  MOVWF  11
005D:  MOVLB  00
005E:  MOVF   27,W
005F:  MOVLB  03
0060:  MOVWF  12
0061:  INCF   11,F
0062:  BTFSC  03.2
0063:  INCF   12,F
0064:  MOVLB  00
0065:  GOTO   019
0066:  MOVLB  03
0067:  MOVLB  00
0068:  RETURN
.................... 
.................... #list
.................... 
.................... #device ADC=12
.................... #use delay(oscillator=16MHz)
0069:  MOVLW  20
006A:  MOVWF  05
006B:  MOVLW  04
006C:  MOVWF  04
006D:  MOVF   00,W
006E:  BTFSC  03.2
006F:  GOTO   07E
0070:  MOVLW  05
0071:  MOVWF  78
0072:  CLRF   77
0073:  DECFSZ 77,F
0074:  GOTO   073
0075:  DECFSZ 78,F
0076:  GOTO   072
0077:  MOVLW  2E
0078:  MOVWF  77
0079:  DECFSZ 77,F
007A:  GOTO   079
007B:  GOTO   07C
007C:  DECFSZ 00,F
007D:  GOTO   070
007E:  MOVLP  00
007F:  GOTO   0DD (RETURN)
.................... #use rs232(baud=9600,parity=N,xmit=PIN_A0,rcv=PIN_A1,bits=8,stream=PORT1)
.................... 
.................... 
.................... 
.................... #fuses HS,NOWDT,NOPROTECT,PUT,BROWNOUT,NOLVP
.................... 
.................... //#use delay(CLOCK = 64 mhz)
.................... // rs232(BAUD =9600,XMIT = PIN_A0,RCV = PIN_A1)
.................... #use rs232(UART1,baud = 9600)
.................... //#use rs232(BAUD =9600)
.................... 
.................... 
.................... 
.................... void main()
0080:  MOVLB  01
0081:  BCF    0C.0
0082:  MOVLB  02
0083:  BSF    0C.0
0084:  MOVLB  03
0085:  BSF    1F.3
0086:  MOVLW  A0
0087:  MOVWF  1B
0088:  MOVLW  01
0089:  MOVWF  1C
008A:  MOVLW  A6
008B:  MOVWF  1E
008C:  MOVLW  90
008D:  MOVWF  1D
008E:  MOVLB  00
008F:  CLRF   21
0090:  CLRF   20
0091:  MOVLB  03
0092:  CLRF   0C
0093:  CLRF   0D
0094:  CLRF   0E
0095:  CLRF   0F
0096:  CLRF   10
0097:  MOVLB  02
0098:  CLRF   12
0099:  CLRF   11
.................... {  
....................    char cmd;
....................    while(1)
....................    {
....................       cmd = getc();
009A:  MOVLB  00
009B:  BTFSS  11.5
009C:  GOTO   09B
009D:  MOVLB  03
009E:  MOVF   19,W
009F:  MOVLB  00
00A0:  MOVWF  22
....................       //putc(cmd);
....................       if((cmd >= '0') && (cmd <= '9'))
00A1:  MOVF   22,W
00A2:  SUBLW  2F
00A3:  BTFSC  03.0
00A4:  GOTO   0C1
00A5:  MOVF   22,W
00A6:  SUBLW  39
00A7:  BTFSS  03.0
00A8:  GOTO   0C1
....................       {
....................          //printf("number\r\n");
....................          output_high(PIN_A1);
00A9:  MOVLB  01
00AA:  BCF    0C.1
00AB:  MOVLB  02
00AC:  BSF    0C.1
....................          //printf("HI");
....................          puts("   LED PinMode : HIGH");
00AD:  MOVLW  03
00AE:  MOVLB  03
00AF:  MOVWF  11
00B0:  MOVLW  00
00B1:  MOVWF  12
00B2:  MOVLB  00
00B3:  CALL   019
00B4:  MOVLW  0D
00B5:  BTFSS  11.4
00B6:  GOTO   0B5
00B7:  MOVLB  03
00B8:  MOVWF  1A
00B9:  MOVLW  0A
00BA:  MOVLB  00
00BB:  BTFSS  11.4
00BC:  GOTO   0BB
00BD:  MOVLB  03
00BE:  MOVWF  1A
....................          //putc('*');
....................       }else{
00BF:  GOTO   0D7
00C0:  MOVLB  00
....................          //putc(0xD);
....................          output_low(PIN_A1);
00C1:  MOVLB  01
00C2:  BCF    0C.1
00C3:  MOVLB  02
00C4:  BCF    0C.1
....................          //printf("num");
....................          puts("   LED PinMode : LOW");
00C5:  MOVLW  0E
00C6:  MOVLB  03
00C7:  MOVWF  11
00C8:  MOVLW  00
00C9:  MOVWF  12
00CA:  MOVLB  00
00CB:  CALL   019
00CC:  MOVLW  0D
00CD:  BTFSS  11.4
00CE:  GOTO   0CD
00CF:  MOVLB  03
00D0:  MOVWF  1A
00D1:  MOVLW  0A
00D2:  MOVLB  00
00D3:  BTFSS  11.4
00D4:  GOTO   0D3
00D5:  MOVLB  03
00D6:  MOVWF  1A
....................          //putc('*');
....................       }
....................       //delay_cycles(1);
....................       delay_ms(1000);
00D7:  MOVLW  04
00D8:  MOVLB  00
00D9:  MOVWF  23
00DA:  MOVLW  FA
00DB:  MOVWF  24
00DC:  GOTO   069
00DD:  DECFSZ 23,F
00DE:  GOTO   0DA
00DF:  GOTO   09B
....................       
....................       //delay_cycles(1);
....................       //delay_ms(500);
....................    }
.................... }
.................... 
00E0:  SLEEP

Configuration Fuses:
   Word  1: 3FC2   HS NOWDT PUT MCLR NOPROTECT NOCPD BROWNOUT NOCLKOUT IESO FCMEN
   Word  2: 1EFF   NOWRT NOVCAP PLL_SW STVREN BORV19 NOLPBOR NODEBUG NOLVP
