Compiling C:\Users\misa3\Downloads\FAB_PIC_FM_for_testing_BBM\FAB_PIC_FM\FAB_PIC_FM on 24-8-21 at 16:26
>>> Warning 238 "C:\Users\misa3\Downloads\FAB_PIC_FM_for_testing_BBM\FAB_PIC_FM\PIC16F1789_registers.h" Line 27(2,5): Duplicate #locate
>>> Warning 238 "C:\Users\misa3\Downloads\FAB_PIC_FM_for_testing_BBM\FAB_PIC_FM\PIC16F1789_registers.h" Line 192(2,5): Duplicate #locate
>>> Warning 238 "C:\Users\misa3\Downloads\FAB_PIC_FM_for_testing_BBM\FAB_PIC_FM\PIC16F1789_registers.h" Line 203(2,5): Duplicate #locate
>>> Warning 238 "C:\Users\misa3\Downloads\FAB_PIC_FM_for_testing_BBM\FAB_PIC_FM\PIC16F1789_registers.h" Line 232(2,5): Duplicate #locate
>>> Warning 238 "C:\Users\misa3\Downloads\FAB_PIC_FM_for_testing_BBM\FAB_PIC_FM\PIC16F1789_registers.h" Line 234(2,5): Duplicate #locate
>>> Warning 238 "C:\Users\misa3\Downloads\FAB_PIC_FM_for_testing_BBM\FAB_PIC_FM\PIC16F1789_registers.h" Line 398(2,5): Duplicate #locate
>>> Warning 238 "C:\Users\misa3\Downloads\FAB_PIC_FM_for_testing_BBM\FAB_PIC_FM\PIC16F1789_registers.h" Line 416(2,5): Duplicate #locate
>>> Warning 238 "C:\Users\misa3\Downloads\FAB_PIC_FM_for_testing_BBM\FAB_PIC_FM\PIC16F1789_registers.h" Line 434(2,5): Duplicate #locate
>>> Warning 203 "C:\Users\misa3\Downloads\FAB_PIC_FM_for_testing_BBM\FAB_PIC_FM\FAB_PIC_FM.c" Line 47(1,1): Condition always TRUE
>>> Warning 202 "C:\Users\misa3\Downloads\FAB_PIC_FM_for_testing_BBM\FAB_PIC_FM\define_func.c" Line 20(6,15): Variable never used:   kill_flag
>>> Warning 202 "C:\Users\misa3\Downloads\FAB_PIC_FM_for_testing_BBM\FAB_PIC_FM\define_func.c" Line 21(6,11): Variable never used:   check
      Memory usage:   ROM=12%      RAM=14% - 16%
      0 Errors,  11 Warnings.
Build Successful.
