000     @SCRATCH
001     @SCRATCH
001     _RETURN_
002     @SCRATCH
003     @SCRATCH
004-005 strtok.save
006-009 _Randseed
00A-00B @sprintf_string
00C     MAIN.cmd
00D-013 MAIN.write_flash_data
014-015 MAIN.i
016-017 erace_and_write_SMF_data.write_flash_data
016     READ_CHIP_ID_SMF.chip_id
016     uart_test.word
016-01F spi_test.prntwrd
016-017 read_SMF_data.i
016     CMD_trans_to_MSN.word
016-019 trans_SMFdata_to_SCF.data_byte
016     digitalIO_test.brek
016-017 read_SCF_data.i
016-017 write_SMF_data.write_flash_data
016     READ_CHIP_ID_OF.chip_id
016     MultiPlexer_ope_test.@SCRATCH1
016     MAIN.@SCRATCH1
017-018 CMD_trans_to_MSN.i
017     @PSTRINGC_115200_31766_31767.@SCRATCH1
018-019 erace_and_write_SMF_data.i
018-019 write_SMF_data.i
018     @PSTRINGC_115200_31766_31767.@SCRATCH2
018     read_SMF_data.@SCRATCH1
018     read_SCF_data.@SCRATCH1
019-026 CMD_trans_to_MSN.A_cmd
019     @PSTRINGC_115200_31766_31767.@SCRATCH3
01A-01D TRANSFER_DATA_NBYTE_SMFtoSCF.FROM_ADRESS
01A-01D SUBSECTOR_4KB_ERASE_SMF.sector_address
01A     write_SMF_data.@SCRATCH1
01A     erace_and_write_SMF_data.@SCRATCH1
01B-01E WRITE_DATA_BYTE_SMF.page_address
01E-021 TRANSFER_DATA_NBYTE_SMFtoSCF.TO_ADRESS
01E-021 SUBSECTOR_4KB_ERASE_SMF.adsress
01F     WRITE_DATA_BYTE_SMF.data
020     @SPI_XFER_1.P1
020     @PSTRINGCN_950.P2
020     @PRINTF_X_950.P3
020-023 WRITE_DATA_BYTE_SMF.adsress
021     @SPI_XFER_1.P1
021     @PRINTF_X_950.P2
021     @PSTRINGCN_950.@SCRATCH1
022     @SPI_XFER_1.P1
022-025 TRANSFER_DATA_NBYTE_SMFtoSCF.data_byte
022     SUBSECTOR_4KB_ERASE_SMF.@SCRATCH1
022     @PSTRINGCN_950.@SCRATCH2
023     @delay_ms1.P1
023     @SPI_XFER_1.@SCRATCH1
023     SUBSECTOR_4KB_ERASE_SMF.@SCRATCH2
023     @PSTRINGCN_950.@SCRATCH3
024     @SPI_XFER_1.@SCRATCH2
024     SUBSECTOR_4KB_ERASE_SMF.@SCRATCH3
024     WRITE_DATA_BYTE_SMF.@SCRATCH1
025     SUBSECTOR_4KB_ERASE_SMF.@SCRATCH4
025     WRITE_DATA_BYTE_SMF.@SCRATCH2
026-029 TRANSFER_DATA_NBYTE_SMFtoSCF.i
026     SUBSECTOR_4KB_ERASE_SMF.@SCRATCH5
026     WRITE_DATA_BYTE_SMF.@SCRATCH3
027-034 CMD_trans_to_MSN.B_cmd
027     WRITE_DATA_BYTE_SMF.@SCRATCH4
028     WRITE_DATA_BYTE_SMF.@SCRATCH5
02A-02D READ_DATA_BYTE_SMF.address
02A     TRANSFER_DATA_NBYTE_SMFtoSCF.@SCRATCH1
02B-02E WRITE_DATA_BYTE_SCF.page_address
02E-031 READ_DATA_BYTE_SMF.adsress
02F     WRITE_DATA_BYTE_SCF.data
030-033 WRITE_DATA_BYTE_SCF.adsress
032     READ_DATA_BYTE_SMF.data
033     @SPI_XFER_3.P1
033     READ_DATA_BYTE_SMF.@SCRATCH1
034     @SPI_XFER_3.P1
034     @SPI_XFER_2.P2
034     WRITE_DATA_BYTE_SCF.@SCRATCH1
034     READ_DATA_BYTE_SMF.@SCRATCH2
035-042 CMD_trans_to_MSN.C_cmd
035     @SPI_XFER_2.P1
035     @SPI_XFER_3.P2
035     WRITE_DATA_BYTE_SCF.@SCRATCH2
035     READ_DATA_BYTE_SMF.@SCRATCH3
036     @SPI_XFER_2.P1
036     @SPI_XFER_3.@SCRATCH1
036     WRITE_DATA_BYTE_SCF.@SCRATCH3
036     READ_DATA_BYTE_SMF.@SCRATCH4
037     @SPI_XFER_2.@SCRATCH1
037     @SPI_XFER_3.@SCRATCH2
037     WRITE_DATA_BYTE_SCF.@SCRATCH4
037     READ_DATA_BYTE_SMF.@SCRATCH5
038     @SPI_XFER_2.@SCRATCH2
038     WRITE_DATA_BYTE_SCF.@SCRATCH5
043-050 CMD_trans_to_MSN.D_cmd
051     @GETCH_1_.@SCRATCH1
051     @PSTRINGC_950.@SCRATCH1
051     CMD_trans_to_MSN.@SCRATCH1
052     @PSTRINGC_950.@SCRATCH2
053     @PSTRINGC_950.@SCRATCH3
054     @PUTCHAR_1_.P1
EEF.0   MDBIT
EEF.3   MDOUT
F08     CCP_7_LOW
F08     CCP_7
F09     CCP_7_HIGH
F0B     CCP_6
F0B     CCP_6_LOW
F0C     CCP_6_HIGH
F0E     CCP_5
F0E     CCP_5_LOW
F0F     CCP_5_HIGH
F11     CCP_4
F11     CCP_4_LOW
F12     CCP_4_HIGH
F21     DSGPR3
F22     DSGPR2
F23     DSGPR1
F24     DSGPR0
F41     CCP_10_LOW
F41     CCP_10
F42     CCP_10_HIGH
F44     CCP_9
F44     CCP_9_LOW
F45     CCP_9_HIGH
F47     CCP_8_LOW
F47     CCP_8
F48     CCP_8_HIGH
F4A     CCP_3
F4A     CCP_3_LOW
F4B     CCP_3_HIGH
F4F     CCP_2_LOW
F4F     CCP_2
F50     CCP_2_HIGH
F83     PSP_DATA
FBA     CCP_1_LOW
FBA     CCP_1
FBB     CCP_1_HIGH
FC4.0   C1OUT
FC4.1   C2OUT
FC4.2   C3OUT
FE1-FE2 @WRITE_PACKED_MEMORY.P1
FE1-FE2 @READ_PACKED_MEMORY.P2
FE9-FEA @WRITE_PACKED_MEMORY.P1
FE9-FEA @WRITE_PROGRAM_MEMORY.P2
FE9-FEA @READ_PACKED_MEMORY.P3
FE9-FEA @READ_PROGRAM_MEMORY.P4
FF6-FF8 @READ_PROGRAM_MEMORY.P1
FF6-FF8 @WRITE_PROGRAM_MEMORY.P2

ROM Allocation:
000006  @const1329.call
000040  @const1334.call
00005A  @const1336.call
00006E  @const1339.call
0000AA  @const1342.call
0000E4  @const1344.call
0000FA  @const1345.call
00010A  @const1349.call
00011C  @const1350.call
00012E  @const1351.call
000142  @const1352.call
00017C  @const1354.call
0001BE  @const1356.call
0001EA  @const1357.call
00022C  @const1359.call
00024E  @const1361.call
00028A  @const1362.call
0002C8  @const1367.call
000306  @const1369.call
000346  @const1374.call
00038E  @const1376.call
0003DA  @const1379.call
00041E  @const1381.call
000466  @const1384.call
0004AA  @const1386.call
0004F2  @const1389.call
000540  @const1390.call
000590  @const1398.call
0005D8  @const1399.call
0005F4  @const1400.call
000612  @const1401.call
000630  @const1402.call
00064E  @const1403.call
00066E  @const1404.call
00069A  @const1405.call
0006D0  @const1406.call
000704  @const1407.call
000734  @const1408.call
000768  @const1409.call
000786  @const1410.call
0007A2  @const1411.call
0007BC  @const1413.call
0007F8  @const1414.call
000834  @const1416.call
000870  @const1417.call
0008AC  @const1424.call
0008EA  @const1425.call
000900  @const1426.call
000916  @const1427.call
000932  @const1428.call
00094C  @PUTCHAR_1_
00098E  @PSTRINGC_950
0009B6  @GETCH_1_
0009FC  @PSTRINGC_115200_31766_31767
000A26  @PSTRINGCN_950
000A4C  uart_test
000ABA  @delay_ms1
000AE2  @SPI_XFER_1
000B1A  @PRINTF_X_950
000B58  spi_test
000C9A  digitalIO_test
000CF4  @SPI_XFER_3
000D2C  READ_CHIP_ID_SMF
000D5A  MultiPlexer_ope_test
000D94  READ_CHIP_ID_OF
000DC4  WRITE_ENABLE_SMF
000DDC  SUBSECTOR_4KB_ERASE_SMF
000E60  erace_SMF_data
000E94  WRITE_DATA_BYTE_SMF
000F04  write_SMF_data
000F82  erace_and_write_SMF_data
001006  READ_DATA_BYTE_SMF
00107C  read_SMF_data
0010D6  read_SCF_data
001130  @SPI_XFER_2
001168  WRITE_ENABLE_SCF
001182  WRITE_DATA_BYTE_SCF
0011F4  TRANSFER_DATA_NBYTE_SMFtoSCF
00127C  trans_SMFdata_to_SCF
0012C2  @PUTCHARI_BIU_2
0012CA  CMD_trans_to_MSN
001520  MultiPlexer_switch_MIS_ON
001548  MultiPlexer_switch_OBC_ON
001570  MAIN
001570  @cinit1
0015FC  @cinit2
0135  StrtoulGO
0135  StrtolGO

Project Directory:
    C:\Users\39gre\OneDrive\ドキュメント\01_千葉工業大学\05_キューブサット\003_PICKIT4\002\010_to write_mainpic_code_20210831\

Project Files:
    main.c                                                  [07-9-21 12:48  CRC=2B3433DA]
    main.h                                                  [01-9-21 17:56  CRC=CBDF3925]
    ..\..\..\..\..\..\..\..\..\Program Files (x86)\PICC\Devices\18F67J94.h [13-5-21 13:54  CRC=CB5C8DE4]
    ..\..\..\..\..\..\..\..\..\Program Files (x86)\PICC\Drivers\stdlib.h [30-6-20 14:21  CRC=452E14BB]
    ..\..\..\..\..\..\..\..\..\Program Files (x86)\PICC\Drivers\stddef.h [30-1-19 12:26  CRC=897CEC6C]
    ..\..\..\..\..\..\..\..\..\Program Files (x86)\PICC\Drivers\string.h [06-4-20 08:43  CRC=B1605627]
    ..\..\..\..\..\..\..\..\..\Program Files (x86)\PICC\Drivers\ctype.h [03-1-08 15:55  CRC=2D1F019F]
    flash_ memory_ MT25QL01GBBB_OF.c                        [03-9-21 16:33  CRC=0FA4E601]

Source signature=8EE41FD2
Program memory checksum=0000
Hex file CRC=365E

Units:
    C:\Users\39gre\OneDrive\ドキュメント\01_千葉工業大学\05_キューブサット\003_PICKIT4\002\010_to write_mainpic_code_20210831\main (main)

Compiler Settings:
    Processor:      PIC18F67J94
    Pointer Size:   16
    ADC Range:      0-255
    Opt Level:      9
    Short,Int,Long: UNSIGNED: 1,8,16
    Float,Double:   32,32
    Compile Mode:   CCS5

Output Files:
    XREF file:   main.xsym
    Errors:      main.err
    Ext Symbols: main.esym
    INHX32:      main.hex
    Symbols:     main.sym
    List:        main.lst
    Debug/COFF:  main.cof
    Project:     main.ccspjt
    Call Tree:   main.tre
    Statistics:  main.STA
